[
    [
        {
            "name": "Giant Hornet",
            "hp": 10,
            "xp": 2
        },{
            "name": "Bunny",
            "hp": 5,
            "xp": 1
        },{
            "name": "Owlbear Cub",
            "hp": 25,
            "xp": 5
        }
    ],[
        {
            "name": "Borc",
            "hp": 500,
            "xp": 25
        },{
            "name": "Gobrin",
            "hp": 300,
            "xp": 18
        }
    ]
]